___lwdiv@dividend 1 0 COMRAM 1
__end_of_NRF24L01_WriteRegister 757C 0 CODE 0
__CFG_XINST$OFF 0 0 ABS 0
sprintf@f F 0 COMRAM 1
___lwdiv@counter 7 0 COMRAM 1
__end_of_Lcd_ConstText 78A8 0 CODE 0
__S0 30000E 0 ABS 0
__S1 5A 0 ABS 0
__S2 0 0 ABS 0
NRF24L01_SetChannel@rf_channel 5 0 COMRAM 1
__Hintentry 0 0 ABS 0
__CFG_PWRT$OFF 0 0 ABS 0
__Lintentry 0 0 ABS 0
__CFG_PLLDIV$5 0 0 ABS 0
Lcd_ConstText@y 8 0 COMRAM 1
Delay_ms@i 4 0 COMRAM 1
_main 7C4C 0 CODE 0
___sp 0 0 STACK 2
start 1000 0 CODE 0
OpenSPI@bus_mode 1 0 COMRAM 1
_TRISB F93 0 ABS 0
_TRISC F94 0 ABS 0
_TRISD F95 0 ABS 0
__Hirdata 0 0 CODE 0
__Lirdata 0 0 CODE 0
__HRAM 0 0 ABS 0
__LRAM 1 0 ABS 0
__CFG_WDTPS$32768 0 0 ABS 0
__Hconfig 30000E 0 CONFIG 0
__Lconfig 300000 0 CONFIG 0
__end_of_Lcd_Init 7A1C 0 CODE 0
delay_ms@n 1 0 COMRAM 1
main@i 54 0 COMRAM 1
?___lwmod 8 0 COMRAM 1
__Hbigram 0 0 ABS 0
__Lbigram 0 0 ABS 0
__Hrparam 0 0 COMRAM 1
__Lrparam 0 0 COMRAM 1
__Hram 0 0 ABS 0
__Lram 0 0 ABS 0
__Hcomram 0 0 ABS 0
__Lcomram 0 0 ABS 0
__end_of_OpenSPI 77DE 0 CODE 0
__Hsfr 0 0 ABS 0
__Lsfr 0 0 ABS 0
__Hbss 0 0 RAM 1
__CFG_STVREN$ON 0 0 ABS 0
__Lbss 0 0 RAM 1
___param_bank 10 0 ABS 0
__Hnvrram 0 0 COMRAM 1
__Lnvrram 0 0 COMRAM 1
?_sprintf D 0 COMRAM 1
_Lcd_Init 795A 0 CODE 0
_ADCON0 FC2 0 ABS 0
__end_of_NRF24L01_SetMode 76F4 0 CODE 0
_ADCON1 FC1 0 ABS 0
__Heeprom_data 0 0 EEDATA 0
__Leeprom_data 0 0 EEDATA 0
_PIR1bits F9E 0 ABS 0
__size_of_NRF24L01_WriteBuffer 0 0 ABS 0
sprintf@ap 17 0 COMRAM 1
_Delay_ms 7618 0 CODE 0
_LATDbits F8C 0 ABS 0
__Hintsave_regs 0 0 BIGRAM 1
__Lintsave_regs 0 0 BIGRAM 1
_delay_ms 7644 0 CODE 0
__end_of_NRF24L01_SetChannel 74FC 0 CODE 0
__Hbigbss 0 0 BIGRAM 1
__Lbigbss 0 0 BIGRAM 1
__Hintret 0 0 ABS 0
__Lintret 0 0 ABS 0
__Hramtop 800 0 RAM 0
__Lramtop 800 0 RAM 0
__Hstruct 0 0 COMRAM 1
__Lstruct 0 0 COMRAM 1
__Hbigdata 0 0 BIGRAM 1
__Lbigdata 0 0 BIGRAM 1
__Hmediumconst 0 0 MEDIUMCONST 0
__Lmediumconst 0 0 MEDIUMCONST 0
?___lwdiv 1 0 COMRAM 1
__Hfarbss 0 0 FARRAM 0
__Lfarbss 0 0 FARRAM 0
__Hintcode 1000 0 CODE 0
_SSPBUF FC9 0 ABS 0
__Lintcode 1000 0 CODE 0
__Hfardata 0 0 FARRAM 0
__Lfardata 0 0 FARRAM 0
_Lcd_Text 77DE 0 CODE 0
__Habs1 0 0 ABS 0
__Labs1 0 0 ABS 0
__CFG_EBTR0$OFF 0 0 ABS 0
__end_of_Lcd_Command 7B32 0 CODE 0
__HnvFARRAM 0 0 FARRAM 0
__LnvFARRAM 0 0 FARRAM 0
__CFG_EBTR1$OFF 0 0 ABS 0
__end_of_NRF24L01_Init 795A 0 CODE 0
__end_of_Lcd_Text 7840 0 CODE 0
Lcd_Text@x 5 0 COMRAM 1
__CFG_PBADEN$OFF 0 0 ABS 0
__end_of_NRF24L01_SendData 75EE 0 CODE 0
Lcd_Text@y 8 0 COMRAM 1
Lcd_Text@buffer 6 0 COMRAM 1
__end_of_dpowers 100F 0 SMALLCONST 0
__Hdata 0 0 ABS 0
__Ldata 0 0 ABS 0
Lcd_Command@command 4 0 COMRAM 1
stackhi 7FF 0 ABS 0
sprintf@sp D 0 COMRAM 1
WriteSPI@data_out 2 0 COMRAM 1
__CFG_CPUDIV$OSC1_PLL2 0 0 ABS 0
__Htemp 0 0 COMRAM 1
__Ltemp 0 0 COMRAM 1
stacklo 60 0 ABS 0
__end_of_Lcd_Delay5us 751E 0 CODE 0
__Hrbit 0 0 COMRAM 1
__Lrbit 0 0 COMRAM 1
__CFG_BOR$ON 0 0 ABS 0
__Hinit 1000 0 CODE 0
__Linit 1000 0 CODE 0
__Hintcodelo 1000 0 CODE 0
__Lintcodelo 1000 0 CODE 0
___wmul 759E 0 CODE 0
__Hrbss 0 0 COMRAM 1
__end_of_main 7D72 0 CODE 0
__Lrbss 0 0 COMRAM 1
__size_of_NRF24L01_SetMode 0 0 ABS 0
__Htext 0 0 ABS 0
__Ltext 0 0 ABS 0
sprintf@width 1D 0 COMRAM 1
___wmul@multiplier 1 0 COMRAM 1
NRF24L01_Init@mode 9 0 COMRAM 1
end_of_initialization 760E 0 CODE 0
NRF24L01_WriteBuffer@data 6 0 COMRAM 1
___wmul@multiplicand 3 0 COMRAM 1
_SSPCON1 FC6 0 ABS 0
__size_of_NRF24L01_SetChannel 0 0 ABS 0
_NRF24L01_Flush 757C 0 CODE 0
__size_of_Lcd_Text 0 0 ABS 0
_ADDRESS_DATA_PIPE0 55 0 COMRAM 1
NRF24L01_WriteBuffer@i 7 0 COMRAM 1
_TRISAbits F92 0 ABS 0
_TRISBbits F93 0 ABS 0
_TRISCbits F94 0 ABS 0
__end_of_NRF24L01_Flush 759E 0 CODE 0
_TRISDbits F95 0 ABS 0
__Hibigdata 0 0 CODE 0
__Libigdata 0 0 CODE 0
NRF24L01_Init@rf_channel 8 0 COMRAM 1
__Hifardata 0 0 CODE 0
__Lifardata 0 0 CODE 0
__Hbank0 0 0 ABS 0
__Lbank0 0 0 ABS 0
__Hbank1 0 0 ABS 0
__Lbank1 0 0 ABS 0
Lcd_CharCP@c 4 0 COMRAM 1
__Hbank2 0 0 ABS 0
__Lbank2 0 0 ABS 0
Lcd_Init@data 5 0 COMRAM 1
__Hbank3 0 0 ABS 0
_Lcd_Delay5us 750C 0 CODE 0
__Lbank3 0 0 ABS 0
__Hbank4 0 0 ABS 0
__Lbank4 0 0 ABS 0
__size_of_NRF24L01_Init 0 0 ABS 0
__Hbank5 0 0 ABS 0
__Lbank5 0 0 ABS 0
__Hpowerup 1000 0 CODE 0
_SSPSTAT FC7 0 ABS 0
__Lpowerup 1000 0 CODE 0
__Hbank6 0 0 ABS 0
__Lbank6 0 0 ABS 0
__Hbank7 0 0 ABS 0
__Lbank7 0 0 ABS 0
_OpenSPI 7788 0 CODE 0
__Htext0 0 0 ABS 0
__Ltext0 0 0 ABS 0
_SSPCON1bits FC6 0 ABS 0
Lcd_Text@data 9 0 COMRAM 1
__Htext1 0 0 ABS 0
__Ltext1 0 0 ABS 0
__ptext0 7C4C 0 CODE 0
__end_of_Delay_ms 7644 0 CODE 0
__Htext2 0 0 ABS 0
__Ltext2 0 0 ABS 0
__ptext1 7D72 0 CODE 0
__size_of_NRF24L01_SendData 0 0 ABS 0
__Htext3 0 0 ABS 0
__Ltext3 0 0 ABS 0
__ptext2 753C 0 CODE 0
__Htext4 0 0 ABS 0
__Ltext4 0 0 ABS 0
__ptext3 759E 0 CODE 0
__Htext5 0 0 ABS 0
__Ltext5 0 0 ABS 0
__ptext4 76F4 0 CODE 0
__Htext6 0 0 ABS 0
__Ltext6 0 0 ABS 0
__ptext5 7736 0 CODE 0
__size_of_Lcd_Command 0 0 ABS 0
__Htext7 0 0 ABS 0
__Ltext7 0 0 ABS 0
__ptext6 7644 0 CODE 0
__Htext8 0 0 ABS 0
__Ltext8 0 0 ABS 0
__ptext7 7788 0 CODE 0
__Htext9 0 0 ABS 0
__Ltext9 0 0 ABS 0
__ptext8 75C4 0 CODE 0
sprintf@val 1A 0 COMRAM 1
__ptext9 78A8 0 CODE 0
__Hclrtext 0 0 ABS 0
__Lclrtext 0 0 ABS 0
__end_of__initialization 760E 0 CODE 0
__CFG_USBDIV$2 0 0 ABS 0
___rparam_used 1 0 ABS 0
__end_of___lwdiv 7788 0 CODE 0
_NRF24L01_SendData 75C4 0 CODE 0
NRF24L01_SetMode@mode 5 0 COMRAM 1
_SSPSTATbits FC7 0 ABS 0
_Lcd_Delay5500us 74FC 0 CODE 0
__end_of_Lcd_CharCP 7C4C 0 CODE 0
NRF24L01_WriteRegister@Mnemonic 4 0 COMRAM 1
__Hidata 0 0 CODE 0
__Lidata 0 0 CODE 0
__Hrdata 0 0 COMRAM 1
__Lrdata 0 0 COMRAM 1
__Hidloc 200008 0 IDLOC 0
__Lidloc 200000 0 IDLOC 0
__Hstack 0 0 STACK 2
__Lstack 0 0 STACK 2
_Lcd_CharCP 7B32 0 CODE 0
___lwmod 76F4 0 CODE 0
__Hparam 0 0 COMRAM 1
__Lparam 0 0 COMRAM 1
__Hspace_0 30000E 0 ABS 0
__HcstackCOMRAM 0 0 ABS 0
__Lspace_0 0 0 ABS 0
Lcd_ConstText@data 9 0 COMRAM 1
__LcstackCOMRAM 0 0 ABS 0
_NRF24L01_WriteBuffer 767A 0 CODE 0
__pcstackCOMRAM 1 0 COMRAM 1
_sprintf 7D72 0 CODE 0
__Hspace_1 5A 0 ABS 0
__Lspace_1 0 0 ABS 0
__Hsmallconst 1030 0 SMALLCONST 0
__Lsmallconst 1004 0 SMALLCONST 0
__psmallconst 1004 0 SMALLCONST 0
__Hspace_2 0 0 ABS 0
__Lspace_2 0 0 ABS 0
__Hnvbit 0 0 COMRAM 1
__Lnvbit 0 0 COMRAM 1
?___wmul 1 0 COMRAM 1
_isdigit 753C 0 CODE 0
__size_of_delay_ms 0 0 ABS 0
__Hcinit 0 0 ABS 0
__Lcinit 0 0 ABS 0
__size_of_Lcd_CharCP 0 0 ABS 0
__pcinit 75EE 0 CODE 0
__CFG_EBTRB$OFF 0 0 ABS 0
__ramtop 800 0 RAM 0
__mediumconst 0 0 MEDIUMCONST 0
___lwdiv 7736 0 CODE 0
__size_of_main 0 0 ABS 0
_dpowers 1005 0 SMALLCONST 0
__Hconst 0 0 CODE 0
__Lconst 0 0 CODE 0
__end_of_NRF24L01_WriteBuffer 76B6 0 CODE 0
NRF24L01_WriteBuffer@bytes 5 0 COMRAM 1
NRF24L01_SendData@buffer 8 0 COMRAM 1
__end_of_isdigit 755A 0 CODE 0
__end_of_sprintf 8000 0 CODE 0
_isdigit$1120 2 0 COMRAM 1
__CFG_WRT0$OFF 0 0 ABS 0
__CFG_WRT1$OFF 0 0 ABS 0
__size_of___lwdiv 0 0 ABS 0
Lcd_ConstText@buffer 6 0 COMRAM 1
__size_of_isdigit 0 0 ABS 0
OpenSPI@smp_phase 2 0 COMRAM 1
__CFG_FCMEN$OFF 0 0 ABS 0
sprintf@flag 1C 0 COMRAM 1
__size_of_Lcd_ConstText 0 0 ABS 0
__Htext10 0 0 ABS 0
__Ltext10 0 0 ABS 0
__Htext20 0 0 ABS 0
__Ltext20 0 0 ABS 0
__ptext10 767A 0 CODE 0
__Htext11 0 0 ABS 0
__Ltext11 0 0 ABS 0
__ptext20 7A1C 0 CODE 0
__Htext21 0 0 ABS 0
__Ltext21 0 0 ABS 0
__ptext11 76B6 0 CODE 0
__Htext12 0 0 ABS 0
__Ltext12 0 0 ABS 0
__ptext21 7B32 0 CODE 0
Lcd_ConstText@x 5 0 COMRAM 1
__Htext22 0 0 ABS 0
__Ltext22 0 0 ABS 0
__ptext12 757C 0 CODE 0
__size_of_NRF24L01_Flush 0 0 ABS 0
__Htext13 0 0 ABS 0
__Ltext13 0 0 ABS 0
__ptext22 750C 0 CODE 0
__Htext23 0 0 ABS 0
__Ltext23 0 0 ABS 0
__ptext13 74EE 0 CODE 0
__Htext14 0 0 ABS 0
__Ltext14 0 0 ABS 0
_ADCON1bits FC1 0 ABS 0
__ptext23 74FC 0 CODE 0
sprintf@prec 19 0 COMRAM 1
__ptext14 755A 0 CODE 0
__Htext15 0 0 ABS 0
__Ltext15 0 0 ABS 0
__ptext15 751E 0 CODE 0
___inthi_sp 0 0 STACK 2
__Htext16 0 0 ABS 0
__Ltext16 0 0 ABS 0
__ptext16 7618 0 CODE 0
__Htext17 0 0 ABS 0
__Ltext17 0 0 ABS 0
__ptext17 77DE 0 CODE 0
__Htext18 0 0 ABS 0
__end_of___lwmod 7736 0 CODE 0
__Ltext18 0 0 ABS 0
___lwmod@divisor A 0 COMRAM 1
__ptext18 795A 0 CODE 0
__Htext19 0 0 ABS 0
__Ltext19 0 0 ABS 0
__size_of_WriteSPI 0 0 ABS 0
__ptext19 7840 0 CODE 0
__CFG_BORV$3 0 0 ABS 0
main@buffer1 40 0 COMRAM 1
___intlo_sp 0 0 STACK 2
WriteSPI@TempVar 1 0 COMRAM 1
__end_of_Lcd_Delay5500us 750C 0 CODE 0
__Hend_init 1004 0 CODE 0
__Lend_init 1000 0 CODE 0
_NRF24L01_SetChannel 74EE 0 CODE 0
__size_of_Lcd_Init 0 0 ABS 0
__HidataCOMRAM 0 0 ABS 0
__LidataCOMRAM 0 0 ABS 0
___lwdiv@divisor 3 0 COMRAM 1
__pidataCOMRAM 74E9 0 CODE 0
__end_of_delay_ms 767A 0 CODE 0
__CFG_CP0$OFF 0 0 ABS 0
__smallconst 1004 0 SMALLCONST 0
__CFG_FOSC$HSPLL_HS 0 0 ABS 0
__CFG_CP1$OFF 0 0 ABS 0
__size_of___wmul 0 0 ABS 0
__Hreset_vec 1000 0 CODE 0
_NRF24L01_WriteRegister 755A 0 CODE 0
__Lreset_vec 1000 0 CODE 0
main@bufferTX 20 0 COMRAM 1
__accesstop 60 0 ABS 0
__Hintcode_body 0 0 ABS 0
__Lintcode_body 0 0 ABS 0
OpenSPI@sync_mode 3 0 COMRAM 1
NRF24L01_WriteRegister@value 3 0 COMRAM 1
Delay_ms@count 1 0 COMRAM 1
intlevel0 0 0 CODE 0
intlevel1 0 0 CODE 0
_Lcd_ConstText 7840 0 CODE 0
__CFG_WRTB$OFF 0 0 ABS 0
intlevel2 0 0 CODE 0
_Lcd_Command 7A1C 0 CODE 0
intlevel3 0 0 CODE 0
__size_of_OpenSPI 0 0 ABS 0
__CFG_WRTC$OFF 0 0 ABS 0
_WriteSPI 751E 0 CODE 0
_NRF24L01_Init 78A8 0 CODE 0
NRF24L01_WriteBuffer@buffer 3 0 COMRAM 1
__HdataCOMRAM 0 0 ABS 0
__LdataCOMRAM 0 0 ABS 0
__size_of___lwmod 0 0 ABS 0
__pdataCOMRAM 55 0 COMRAM 1
__CFG_CPB$OFF 0 0 ABS 0
__end_of___wmul 75C4 0 CODE 0
start_initialization 75EE 0 CODE 0
__size_of_Delay_ms 0 0 ABS 0
___lwdiv@quotient 5 0 COMRAM 1
__end_of_WriteSPI 753C 0 CODE 0
__size_of_Lcd_Delay5500us 0 0 ABS 0
__CFG_IESO$OFF 0 0 ABS 0
_NRF24L01_SetMode 76B6 0 CODE 0
__CFG_MCLRE$ON 0 0 ABS 0
__CFG_VREGEN$ON 0 0 ABS 0
__size_of_sprintf 0 0 ABS 0
__initialization 75EE 0 CODE 0
__CFG_LPT1OSC$OFF 0 0 ABS 0
___lwmod@dividend 8 0 COMRAM 1
__size_of_NRF24L01_WriteRegister 0 0 ABS 0
__activetblptr 2 0 ABS 0
___wmul@product 5 0 COMRAM 1
___lwmod@counter C 0 COMRAM 1
__CFG_WDT$OFF 0 0 ABS 0
__size_of_Lcd_Delay5us 0 0 ABS 0
__CFG_LVP$OFF 0 0 ABS 0
sprintf@c 1F 0 COMRAM 1
isdigit@c 3 0 COMRAM 1
%segments
reset_vec 1000 1003 CODE 1000 0
smallconst 1004 102F SMALLCONST 1004 0
config 300000 30000D CONFIG 300000 0
idloc 200000 200007 IDLOC 200000 0
cstackCOMRAM 1 59 COMRAM 1 1
text1 7D72 7FFF CODE 7D72 0
text0 7C4C 7D71 CODE 7C4C 0
text21 7B32 7C4B CODE 7B32 0
text20 7A1C 7B31 CODE 7A1C 0
text18 795A 7A1B CODE 795A 0
text9 78A8 7959 CODE 78A8 0
text19 7840 78A7 CODE 7840 0
text17 77DE 783F CODE 77DE 0
text7 7788 77DD CODE 7788 0
text5 7736 7787 CODE 7736 0
text4 76F4 7735 CODE 76F4 0
text11 76B6 76F3 CODE 76B6 0
text10 767A 76B5 CODE 767A 0
text6 7644 7679 CODE 7644 0
text16 7618 7643 CODE 7618 0
cinit 75EE 7617 CODE 75EE 0
text8 75C4 75ED CODE 75C4 0
text3 759E 75C3 CODE 759E 0
text12 757C 759D CODE 757C 0
text14 755A 757B CODE 755A 0
text2 753C 7559 CODE 753C 0
text15 751E 753B CODE 751E 0
text22 750C 751D CODE 750C 0
text23 74FC 750B CODE 74FC 0
text13 74EE 74FB CODE 74EE 0
idataCOMRAM 74E9 74ED CODE 74E9 0
%locals
dist/default/production\NRF24L01_TX.X.production.obj
C:\Program Files\Microchip\xc8\v1.35\include\pic18f4550.h
C:\Users\Brandy\AppData\Local\Temp\s514.
1706 75EE 0 CODE 0
1708 75EE 0 CODE 0
1711 75EE 0 CODE 0
1726 75EE 0 CODE 0
1727 75F0 0 CODE 0
1728 75F2 0 CODE 0
1729 75F4 0 CODE 0
1730 75F6 0 CODE 0
1731 75F8 0 CODE 0
1732 75FA 0 CODE 0
1733 75FE 0 CODE 0
1734 7602 0 CODE 0
1735 7602 0 CODE 0
1736 7604 0 CODE 0
1737 7608 0 CODE 0
1738 760A 0 CODE 0
1739 760C 0 CODE 0
1745 760E 0 CODE 0
1748 760E 0 CODE 0
1749 7610 0 CODE 0
1750 7612 0 CODE 0
1751 7614 0 CODE 0
TXmain.c
16 7C4C 0 CODE 0
20 7C4C 0 CODE 0
21 7C50 0 CODE 0
22 7C54 0 CODE 0
24 7C5C 0 CODE 0
25 7C60 0 CODE 0
26 7C64 0 CODE 0
34 7C68 0 CODE 0
35 7C6A 0 CODE 0
36 7C78 0 CODE 0
37 7C7C 0 CODE 0
38 7C82 0 CODE 0
39 7C88 0 CODE 0
41 7C9A 0 CODE 0
43 7CA4 0 CODE 0
44 7CA8 0 CODE 0
45 7CB4 0 CODE 0
46 7CC0 0 CODE 0
47 7CDA 0 CODE 0
48 7CEC 0 CODE 0
49 7CF2 0 CODE 0
44 7D06 0 CODE 0
51 7D0A 0 CODE 0
52 7D0E 0 CODE 0
53 7D1A 0 CODE 0
54 7D20 0 CODE 0
55 7D2C 0 CODE 0
56 7D46 0 CODE 0
57 7D58 0 CODE 0
52 7D6C 0 CODE 0
60 7D70 0 CODE 0
C:\Program Files\Microchip\xc8\v1.35\sources\common\doprnt.c
492 7D72 0 CODE 0
533 7D72 0 CODE 0
536 7D7A 0 CODE 0
538 7D7C 0 CODE 0
541 7D84 0 CODE 0
542 7D94 0 CODE 0
546 7D96 0 CODE 0
548 7D9E 0 CODE 0
551 7DA2 0 CODE 0
580 7DA4 0 CODE 0
581 7DA6 0 CODE 0
551 7DAA 0 CODE 0
597 7DBC 0 CODE 0
598 7DD0 0 CODE 0
600 7DD8 0 CODE 0
601 7DF4 0 CODE 0
602 7E20 0 CODE 0
635 7E34 0 CODE 0
1259 7E5A 0 CODE 0
1261 7E72 0 CODE 0
1262 7E76 0 CODE 0
1263 7E7A 0 CODE 0
1305 7E82 0 CODE 0
1306 7E8E 0 CODE 0
1305 7EAE 0 CODE 0
1345 7EB2 0 CODE 0
1346 7EC6 0 CODE 0
1381 7ECC 0 CODE 0
1382 7EE2 0 CODE 0
1384 7EF0 0 CODE 0
1387 7EF8 0 CODE 0
1392 7EFC 0 CODE 0
1393 7F08 0 CODE 0
1415 7F18 0 CODE 0
1417 7F20 0 CODE 0
1418 7F30 0 CODE 0
1428 7F38 0 CODE 0
1430 7F40 0 CODE 0
1431 7F50 0 CODE 0
1438 7F5E 0 CODE 0
1439 7F6A 0 CODE 0
1472 7F7A 0 CODE 0
1474 7F7E 0 CODE 0
1489 7F80 0 CODE 0
1524 7FC2 0 CODE 0
1474 7FD2 0 CODE 0
536 7FDA 0 CODE 0
1538 7FF2 0 CODE 0
C:\Program Files\Microchip\xc8\v1.35\sources\common\isdigit.c
8 753C 0 CODE 0
14 753E 0 CODE 0
C:\Program Files\Microchip\xc8\v1.35\sources\common\Umul16.c
15 759E 0 CODE 0
37 759E 0 CODE 0
38 75AA 0 CODE 0
39 75B2 0 CODE 0
52 75BA 0 CODE 0
C:\Program Files\Microchip\xc8\v1.35\sources\common\lwmod.c
8 76F4 0 CODE 0
13 76F4 0 CODE 0
14 76FC 0 CODE 0
15 7700 0 CODE 0
16 7702 0 CODE 0
17 7708 0 CODE 0
15 770A 0 CODE 0
20 770E 0 CODE 0
21 771A 0 CODE 0
22 7722 0 CODE 0
23 7728 0 CODE 0
24 772C 0 CODE 0
25 772C 0 CODE 0
26 7734 0 CODE 0
C:\Program Files\Microchip\xc8\v1.35\sources\common\lwdiv.c
8 7736 0 CODE 0
14 7736 0 CODE 0
15 773E 0 CODE 0
16 7746 0 CODE 0
17 774A 0 CODE 0
18 774C 0 CODE 0
19 7752 0 CODE 0
17 7754 0 CODE 0
22 7758 0 CODE 0
23 775E 0 CODE 0
24 776A 0 CODE 0
25 7772 0 CODE 0
27 7774 0 CODE 0
28 777A 0 CODE 0
29 777E 0 CODE 0
30 777E 0 CODE 0
31 7786 0 CODE 0
Alteri.h
146 7644 0 CODE 0
148 7644 0 CODE 0
149 7646 0 CODE 0
148 7656 0 CODE 0
C:\Program Files\Microchip\xc8\v1.35\sources\pic18\plib\SPI\spi_open.c
14 7788 0 CODE 0
16 778A 0 CODE 0
17 778E 0 CODE 0
18 7792 0 CODE 0
19 7796 0 CODE 0
21 779A 0 CODE 0
23 779C 0 CODE 0
24 779C 0 CODE 0
25 779E 0 CODE 0
26 77A0 0 CODE 0
27 77A0 0 CODE 0
30 77A2 0 CODE 0
31 77A2 0 CODE 0
35 77A4 0 CODE 0
21 77A6 0 CODE 0
37 77BA 0 CODE 0
39 77BC 0 CODE 0
47 77BC 0 CODE 0
62 77BE 0 CODE 0
66 77BE 0 CODE 0
72 77C0 0 CODE 0
74 77C2 0 CODE 0
78 77C2 0 CODE 0
86 77C4 0 CODE 0
37 77C6 0 CODE 0
86 77D6 0 CODE 0
88 77D6 0 CODE 0
89 77D8 0 CODE 0
101 77DA 0 CODE 0
102 77DC 0 CODE 0
nrf24l01.c
95 75C4 0 CODE 0
96 75C4 0 CODE 0
97 75CA 0 CODE 0
98 75DC 0 CODE 0
99 75DE 0 CODE 0
100 75EA 0 CODE 0
101 75EC 0 CODE 0
nrf24l01.c
56 78A8 0 CODE 0
57 78AA 0 CODE 0
58 78AC 0 CODE 0
59 78AE 0 CODE 0
60 78B0 0 CODE 0
61 78B2 0 CODE 0
62 78BE 0 CODE 0
63 78C8 0 CODE 0
64 78D4 0 CODE 0
65 78DE 0 CODE 0
66 78E8 0 CODE 0
67 78F2 0 CODE 0
68 78FC 0 CODE 0
69 7902 0 CODE 0
71 790C 0 CODE 0
72 791E 0 CODE 0
73 7930 0 CODE 0
75 793A 0 CODE 0
76 7946 0 CODE 0
77 794C 0 CODE 0
78 7958 0 CODE 0
nrf24l01.c
33 767A 0 CODE 0
35 767C 0 CODE 0
36 767E 0 CODE 0
37 768A 0 CODE 0
38 7690 0 CODE 0
39 76A4 0 CODE 0
37 76A8 0 CODE 0
41 76B2 0 CODE 0
42 76B4 0 CODE 0
nrf24l01.c
80 76B6 0 CODE 0
81 76B8 0 CODE 0
82 76BC 0 CODE 0
83 76C6 0 CODE 0
85 76C8 0 CODE 0
86 76D2 0 CODE 0
87 76D4 0 CODE 0
89 76D6 0 CODE 0
90 76E0 0 CODE 0
92 76E2 0 CODE 0
83 76E4 0 CODE 0
nrf24l01.c
129 757C 0 CODE 0
130 757C 0 CODE 0
131 757E 0 CODE 0
132 758A 0 CODE 0
133 758C 0 CODE 0
134 758E 0 CODE 0
135 759A 0 CODE 0
136 759C 0 CODE 0
nrf24l01.c
116 74EE 0 CODE 0
117 74F0 0 CODE 0
118 74FA 0 CODE 0
nrf24l01.c
17 755A 0 CODE 0
18 755C 0 CODE 0
19 755E 0 CODE 0
20 756C 0 CODE 0
21 7578 0 CODE 0
22 757A 0 CODE 0
C:\Program Files\Microchip\xc8\v1.35\sources\pic18\plib\SPI\spi_writ.c
13 751E 0 CODE 0
16 7520 0 CODE 0
17 7524 0 CODE 0
18 7526 0 CODE 0
19 7528 0 CODE 0
20 752C 0 CODE 0
21 7530 0 CODE 0
24 7534 0 CODE 0
25 7538 0 CODE 0
my_delays.c
11 7618 0 CODE 0
13 7618 0 CODE 0
14 7622 0 CODE 0
13 7632 0 CODE 0
hd44780.c
71 77DE 0 CODE 0
73 77E0 0 CODE 0
74 77E2 0 CODE 0
75 77E8 0 CODE 0
76 77EE 0 CODE 0
77 77F4 0 CODE 0
78 77FA 0 CODE 0
73 77FC 0 CODE 0
79 7816 0 CODE 0
80 781C 0 CODE 0
82 781E 0 CODE 0
83 782C 0 CODE 0
80 7830 0 CODE 0
hd44780.c
17 795A 0 CODE 0
19 795A 0 CODE 0
20 7966 0 CODE 0
21 7972 0 CODE 0
22 797E 0 CODE 0
23 798A 0 CODE 0
24 7996 0 CODE 0
25 7996 0 CODE 0
26 79A2 0 CODE 0
27 79AE 0 CODE 0
28 79B2 0 CODE 0
29 79BE 0 CODE 0
23 79C2 0 CODE 0
31 79C6 0 CODE 0
32 79D2 0 CODE 0
33 79DE 0 CODE 0
34 79E2 0 CODE 0
35 79EE 0 CODE 0
36 79F2 0 CODE 0
37 79FC 0 CODE 0
38 7A06 0 CODE 0
39 7A10 0 CODE 0
40 7A1A 0 CODE 0
hd44780.c
48 7840 0 CODE 0
50 7842 0 CODE 0
51 7844 0 CODE 0
52 784A 0 CODE 0
53 7850 0 CODE 0
54 7856 0 CODE 0
55 785C 0 CODE 0
50 785E 0 CODE 0
56 7878 0 CODE 0
57 787E 0 CODE 0
59 7880 0 CODE 0
60 7890 0 CODE 0
57 7894 0 CODE 0
hd44780.c
127 7A1C 0 CODE 0
128 7A1E 0 CODE 0
129 7A22 0 CODE 0
130 7A60 0 CODE 0
131 7A9C 0 CODE 0
132 7AA4 0 CODE 0
133 7AAC 0 CODE 0
134 7AEE 0 CODE 0
135 7B1C 0 CODE 0
136 7B24 0 CODE 0
137 7B2C 0 CODE 0
138 7B30 0 CODE 0
hd44780.c
110 7B32 0 CODE 0
111 7B34 0 CODE 0
112 7B38 0 CODE 0
113 7B76 0 CODE 0
114 7BB2 0 CODE 0
115 7BBA 0 CODE 0
116 7BC2 0 CODE 0
117 7C04 0 CODE 0
118 7C32 0 CODE 0
119 7C3A 0 CODE 0
120 7C42 0 CODE 0
121 7C4A 0 CODE 0
hd44780.c
143 750C 0 CODE 0
144 750C 0 CODE 0
145 7514 0 CODE 0
146 751C 0 CODE 0
hd44780.c
147 74FC 0 CODE 0
148 74FC 0 CODE 0
149 750A 0 CODE 0
